k;time (ms);well number;well height;fill rate;rate
1;10228;1;18;77,0;-170,583
2;17278;1;19;73,0;-155,991
2;17278;1;19;73,0;-156,213
3;23818;1;18;77,0;-140,472
3;23818;1;18;77,0;-140,472
3;23818;1;18;77,0;-140,583
4;32238;1;19;73,0;-142,880
4;32238;1;19;73,0;-142,991
4;32238;1;18;77,0;-143,028
4;32238;1;18;77,0;-143,028
5;38349;1;19;73,0;-148,102
5;38349;1;19;73,0;-148,213
5;38349;1;19;73,0;-148,213
5;38349;1;19;73,0;-148,213
5;38349;1;19;73,0;-148,213
6;49235;1;19;73,0;-151,658
6;49235;1;18;77,0;-151,806
6;49235;1;18;77,0;-151,806
6;49235;1;19;73,0;-151,880
6;49235;1;19;73,0;-151,880
6;49235;1;19;73,0;-151,991
7;55389;1;19;73,0;-149,991
7;55389;1;19;73,0;-149,991
7;55389;1;19;73,0;-150,102
7;55389;1;19;73,0;-150,102
7;55389;1;19;73,0;-150,102
7;55389;1;19;73,0;-150,102
7;55389;1;19;73,0;-150,213
8;61491;1;18;77,0;-122,472
8;61491;1;18;77,0;-122,694
8;61491;1;18;77,0;-122,694
8;61491;1;18;77,0;-122,806
8;61491;1;18;77,0;-122,917
8;61491;1;18;77,0;-122,917
8;61491;1;18;77,0;-122,917
8;61491;1;18;77,0;-122,917
9;77138;1;18;77,0;-163,361
9;77138;1;18;77,0;-163,361
9;77138;1;18;77,0;-163,361
9;77138;1;18;77,0;-163,361
9;77138;1;20;69,0;-164,136
9;77138;1;20;69,0;-164,136
9;77138;1;20;69,0;-164,247
9;77138;1;20;69,0;-164,247
9;77138;1;20;69,0;-164,247
