k;time (ms);well number;well height;fill rate;rate
1;11133;1;156;74,0;-666,477
2;20030;1;152;76,0;-606,167
2;20030;1;152;76,0;-615,212
3;29389;1;157;74,0;-700,511
3;29389;1;157;74,0;-703,531
3;29389;1;159;73,0;-707,617
4;38438;1;151;77,0;-630,147
4;38438;1;151;77,0;-631,128
4;38438;1;153;76,0;-631,191
4;38438;1;153;76,0;-631,323
5;49667;1;153;76,0;-625,191
5;49667;1;153;76,0;-628,229
5;49667;1;153;76,0;-628,267
5;49667;1;153;76,0;-630,248
5;49667;1;153;76,0;-632,267
6;57872;1;153;76,0;-617,224
6;57872;1;154;75,0;-618,380
6;57872;1;153;76,0;-620,240
6;57872;1;153;76,0;-620,308
6;57872;1;154;75,0;-620,357
6;57872;1;154;75,0;-624,266
7;67486;1;152;76,0;-623,212
7;67486;1;153;76,0;-623,285
7;67486;1;153;76,0;-623,303
7;67486;1;153;76,0;-624,256
7;67486;1;154;75,0;-627,353
7;67486;1;154;75,0;-631,329
7;67486;1;154;75,0;-632,329
8;78710;1;150;77,0;-556,128
8;78710;1;151;77,0;-561,155
8;78710;1;151;77,0;-565,155
8;78710;1;151;77,0;-565,155
8;78710;1;151;77,0;-565,162
8;78710;1;151;77,0;-565,227
8;78710;1;151;77,0;-566,155
8;78710;1;151;77,0;-567,179
9;88331;1;149;78,0;-549,044
9;88331;1;148;78,0;-551,953
9;88331;1;149;78,0;-554,978
9;88331;1;149;78,0;-557,032
9;88331;1;150;77,0;-560,128
9;88331;1;149;78,0;-561,951
9;88331;1;149;78,0;-563,059
9;88331;1;150;77,0;-563,112
9;88331;1;149;78,0;-563,967
