k;time (ms);well number;well height;fill rate;rate
1;11123;1;157;74,0;-682,456
2;20925;1;152;76,0;-619,099
2;20925;1;153;76,0;-619,240
3;28704;1;156;74,0;-698,454
3;28704;1;155;75,0;-702,365
3;28704;1;156;74,0;-709,409
4;38606;1;152;76,0;-599,253
4;38606;1;153;76,0;-605,327
4;38606;1;153;76,0;-606,303
4;38606;1;153;76,0;-608,303
5;46486;1;156;74,0;-679,302
5;46486;1;157;74,0;-681,545
5;46486;1;157;74,0;-682,497
5;46486;1;157;74,0;-683,473
5;46486;1;157;74,0;-684,473
6;57254;1;152;76,0;-630,103
6;57254;1;153;76,0;-640,208
6;57254;1;153;76,0;-641,280
6;57254;1;153;76,0;-643,267
6;57254;1;152;76,0;-644,273
6;57254;1;152;76,0;-645,160
7;65738;1;152;76,0;-599,134
7;65738;1;152;76,0;-603,087
7;65738;1;152;76,0;-604,253
7;65738;1;153;76,0;-604,280
7;65738;1;152;76,0;-605,206
7;65738;1;153;76,0;-606,327
7;65738;1;153;76,0;-608,208
8;76844;1;150;77,0;-561,997
8;76844;1;151;77,0;-572,048
8;76844;1;151;77,0;-577,207
8;76844;1;151;77,0;-581,207
8;76844;1;152;76,0;-584,039
8;76844;1;152;76,0;-585,158
8;76844;1;152;76,0;-585,281
8;76844;1;152;76,0;-586,206
9;85413;1;150;77,0;-557,032
9;85413;1;149;78,0;-557,880
9;85413;1;150;77,0;-562,937
9;85413;1;151;77,0;-567,155
9;85413;1;151;77,0;-568,036
9;85413;1;151;77,0;-569,155
9;85413;1;150;77,0;-569,961
9;85413;1;151;77,0;-571,203
9;85413;1;151;77,0;-572,250
