k;time (ms);well number;well height;fill rate;rate
1;7679;1;88;86,0;-137,902
2;13495;1;89;85,0;-124,153
2;13495;1;90;84,0;-130,320
3;19169;1;91;83,0;-149,178
3;19169;1;92;82,0;-155,302
3;19169;1;93;81,0;-162,299
4;27637;1;90;84,0;-123,756
4;27637;1;90;84,0;-123,756
4;27637;1;90;84,0;-125,156
4;27637;1;90;84,0;-125,156
5;31654;1;87;87,0;-108,889
5;31654;1;88;86,0;-109,030
5;31654;1;89;85,0;-112,194
5;31654;1;87;87,0;-112,901
5;31654;1;89;85,0;-114,061
6;38563;1;88;86,0;-120,864
6;38563;1;88;86,0;-120,864
6;38563;1;91;83,0;-140,461
6;38563;1;91;83,0;-140,461
6;38563;1;89;85,0;-141,211
6;38563;1;89;85,0;-141,211
7;43330;1;87;87,0;-98,998
7;43330;1;87;87,0;-101,014
7;43330;1;87;87,0;-101,064
7;43330;1;87;87,0;-102,952
7;43330;1;86;88,0;-108,963
7;43330;1;88;86,0;-111,176
7;43330;1;88;86,0;-113,114
8;52308;1;87;87,0;-89,853
8;52308;1;86;88,0;-90,086
8;52308;1;86;88,0;-90,850
8;52308;1;86;88,0;-93,009
8;52308;1;85;89,0;-94,765
8;52308;1;85;89,0;-95,471
8;52308;1;88;86,0;-95,834
8;52308;1;88;86,0;-96,834
9;57476;1;88;86,0;-99,630
9;57476;1;88;86,0;-100,230
9;57476;1;88;86,0;-100,246
9;57476;1;88;86,0;-101,893
9;57476;1;86;88,0;-102,788
9;57476;1;87;87,0;-103,077
9;57476;1;87;87,0;-103,998
9;57476;1;89;85,0;-104,927
9;57476;1;89;85,0;-105,794
