k;time (ms);well number;well height;fill rate;rate
1;30411;1;154;90,0;-118,336
2;51065;1;152;91,0;-98,217
2;51065;1;152;91,0;-98,342
3;74942;1;154;90,0;-108,336
3;74942;1;153;90,0;-108,527
3;74942;1;154;90,0;-110,336
4;96012;1;152;91,0;-98,342
4;96012;1;153;90,0;-98,527
4;96012;1;152;91,0;-99,342
4;96012;1;153;90,0;-99,402
5;131818;1;149;93,0;-70,658
5;131818;1;150;92,0;-75,970
5;131818;1;150;92,0;-79,220
5;131818;1;151;92,0;-79,281
5;131818;1;151;92,0;-79,281
6;154398;1;151;92,0;-87,281
6;154398;1;152;91,0;-89,467
6;154398;1;151;92,0;-90,156
6;154398;1;152;91,0;-90,467
6;154398;1;152;91,0;-91,342
6;154398;1;152;91,0;-92,967
7;180056;1;148;94,0;-55,595
7;180056;1;148;94,0;-59,970
7;180056;1;148;94,0;-60,095
7;180056;1;149;93,0;-60,158
7;180056;1;149;93,0;-60,158
7;180056;1;148;94,0;-60,970
7;180056;1;148;94,0;-60,970
8;205671;1;151;92,0;-90,281
8;205671;1;151;92,0;-90,281
8;205671;1;152;91,0;-90,342
8;205671;1;152;91,0;-90,342
8;205671;1;151;92,0;-91,156
8;205671;1;151;92,0;-91,156
8;205671;1;151;92,0;-93,281
8;205671;1;151;92,0;-93,281
9;234790;1;150;92,0;-67,970
9;234790;1;150;92,0;-67,970
9;234790;1;150;92,0;-68,095
9;234790;1;150;92,0;-68,095
9;234790;1;149;93,0;-68,158
9;234790;1;149;93,0;-68,158
9;234790;1;149;93,0;-68,158
9;234790;1;149;93,0;-68,158
9;234790;1;150;92,0;-68,345
