k;time (ms);well number;well height;fill rate;rate
1;30294;1;152;91,0;-105,342
2;52795;1;153;90,0;-98,277
2;52795;1;152;91,0;-102,342
3;78027;1;152;91,0;-97,217
3;78027;1;152;91,0;-98,092
3;78027;1;152;91,0;-98,592
4;103179;1;152;91,0;-94,342
4;103179;1;152;91,0;-97,217
4;103179;1;153;90,0;-97,277
4;103179;1;152;91,0;-98,217
5;130629;1;151;92,0;-83,906
5;130629;1;152;91,0;-86,217
5;130629;1;151;92,0;-87,281
5;130629;1;151;92,0;-87,406
5;130629;1;152;91,0;-87,467
6;154838;1;150;92,0;-76,970
6;154838;1;150;92,0;-78,720
6;154838;1;151;92,0;-81,031
6;154838;1;151;92,0;-81,281
6;154838;1;150;92,0;-82,220
6;154838;1;151;92,0;-82,281
7;181647;1;148;94,0;-59,095
7;181647;1;149;93,0;-60,783
7;181647;1;148;94,0;-60,970
7;181647;1;148;94,0;-61,220
7;181647;1;149;93,0;-61,283
7;181647;1;149;93,0;-63,658
7;181647;1;148;94,0;-63,970
8;207625;1;149;93,0;-69,033
8;207625;1;150;92,0;-69,345
8;207625;1;149;93,0;-69,908
8;207625;1;150;92,0;-70,220
8;207625;1;149;93,0;-70,783
8;207625;1;150;92,0;-71,345
8;207625;1;151;92,0;-75,406
8;207625;1;150;92,0;-75,970
9;239342;1;150;92,0;-80,220
9;239342;1;150;92,0;-80,220
9;239342;1;150;92,0;-80,220
9;239342;1;150;92,0;-80,220
9;239342;1;151;92,0;-80,281
9;239342;1;151;92,0;-80,281
9;239342;1;151;92,0;-80,281
9;239342;1;151;92,0;-85,281
9;239342;1;151;92,0;-85,281
