k;time (ms);well number;well height;fill rate;rate
1;28544;1;155;89,0;-123,394
2;52060;1;152;91,0;-98,092
2;52060;1;153;90,0;-106,277
3;74636;1;153;90,0;-98,652
3;74636;1;153;90,0;-101,652
3;74636;1;153;90,0;-102,652
4;97789;1;154;90,0;-112,961
4;97789;1;154;90,0;-113,086
4;97789;1;154;90,0;-115,086
4;97789;1;154;90,0;-116,086
5;124089;1;151;92,0;-89,781
5;124089;1;151;92,0;-89,781
5;124089;1;151;92,0;-90,156
5;124089;1;151;92,0;-90,156
5;124089;1;152;91,0;-90,217
6;157280;1;150;92,0;-83,345
6;157280;1;151;92,0;-83,906
6;157280;1;151;92,0;-84,281
6;157280;1;151;92,0;-89,281
6;157280;1;151;92,0;-89,281
6;157280;1;151;92,0;-89,281
7;188684;1;149;93,0;-64,158
7;188684;1;148;94,0;-64,845
7;188684;1;149;93,0;-67,158
7;188684;1;150;92,0;-67,220
7;188684;1;149;93,0;-67,283
7;188684;1;150;92,0;-67,345
7;188684;1;150;92,0;-67,345
8;208556;1;150;92,0;-79,845
8;208556;1;150;92,0;-80,095
8;208556;1;151;92,0;-81,156
8;208556;1;151;92,0;-81,156
8;208556;1;151;92,0;-85,406
8;208556;1;151;92,0;-85,406
8;208556;1;151;92,0;-86,156
8;208556;1;151;92,0;-86,156
9;231820;1;149;93,0;-64,158
9;231820;1;149;93,0;-65,033
9;231820;1;149;93,0;-65,033
9;231820;1;150;92,0;-69,220
9;231820;1;150;92,0;-70,345
9;231820;1;150;92,0;-70,345
9;231820;1;150;92,0;-70,345
9;231820;1;150;92,0;-71,095
9;231820;1;150;92,0;-71,095
