width;k;time(ms);well number;well height;fill rate;rate
5;1;15675;1;283;76,0;-315,923
5;2;23733;1;270;80,0;-251,556
5;2;23733;1;270;80,0;-253,444
5;3;32860;1;271;79,0;-260,141
5;3;32860;1;272;79,0;-261,281
5;3;32860;1;273;79,0;-264,643
5;4;43346;1;271;79,0;-254,474
5;4;43346;1;270;80,0;-254,556
5;4;43346;1;270;80,0;-254,556
5;4;43346;1;270;80,0;-254,556
5;5;55816;1;269;80,0;-246,526
5;5;55816;1;269;80,0;-248,415
5;5;55816;1;269;80,0;-249,415
5;5;55816;1;269;80,0;-249,415
5;5;55816;1;269;80,0;-249,415
5;6;66061;1;267;80,0;-239,466
5;6;66061;1;267;80,0;-239,466
5;6;66061;1;267;80,0;-239,466
5;6;66061;1;267;80,0;-239,466
5;6;66061;1;268;80,0;-239,496
5;6;66061;1;268;80,0;-239,496
5;7;76657;1;268;80,0;-244,385
5;7;76657;1;268;80,0;-244,385
5;7;76657;1;268;80,0;-244,385
5;7;76657;1;268;80,0;-244,496
5;7;76657;1;268;80,0;-244,496
5;7;76657;1;268;80,0;-244,496
5;7;76657;1;268;80,0;-244,496
5;8;86507;1;268;80,0;-244,385
5;8;86507;1;268;80,0;-244,385
5;8;86507;1;268;80,0;-244,385
5;8;86507;1;268;80,0;-244,385
5;8;86507;1;268;80,0;-244,385
5;8;86507;1;268;80,0;-244,385
5;8;86507;1;268;80,0;-244,385
5;8;86507;1;269;80,0;-244,637
5;9;103873;1;267;80,0;-240,021
5;9;103873;1;267;80,0;-240,021
5;9;103873;1;267;80,0;-240,021
5;9;103873;1;268;80,0;-240,274
5;9;103873;1;268;80,0;-240,274
5;9;103873;1;268;80,0;-240,274
5;9;103873;1;268;80,0;-244,496
5;9;103873;1;268;80,0;-244,496
5;9;103873;1;268;80,0;-244,496
6;1;14498;1;232;77,0;-294,686
6;2;23799;1;228;78,0;-266,327
6;2;23799;1;228;78,0;-266,550
6;3;32727;1;228;78,0;-264,550
6;3;32727;1;227;79,0;-264,626
6;3;32727;1;228;78,0;-264,772
6;4;43961;1;224;80,0;-240,520
6;4;43961;1;224;80,0;-241,298
6;4;43961;1;224;80,0;-241,409
6;4;43961;1;224;80,0;-243,409
6;5;55714;1;220;81,0;-220,374
6;5;55714;1;221;81,0;-221,411
6;5;55714;1;221;81,0;-221,411
6;5;55714;1;220;81,0;-221,485
6;5;55714;1;221;81,0;-222,411
6;6;63003;1;221;81,0;-223,189
6;6;63003;1;221;81,0;-223,411
6;6;63003;1;222;81,0;-232,447
6;6;63003;1;222;81,0;-232,559
6;6;63003;1;223;80,0;-233,373
6;6;63003;1;223;80,0;-233,484
6;7;78250;1;220;81,0;-220,374
6;7;78250;1;220;81,0;-221,263
6;7;78250;1;221;81,0;-221,300
6;7;78250;1;220;81,0;-221,374
6;7;78250;1;220;81,0;-221,374
6;7;78250;1;221;81,0;-221,411
6;7;78250;1;221;81,0;-221,411
6;8;84400;1;224;80,0;-240,631
6;8;84400;1;224;80,0;-242,520
6;8;84400;1;224;80,0;-245,520
6;8;84400;1;224;80,0;-245,520
6;8;84400;1;224;80,0;-245,520
6;8;84400;1;224;80,0;-245,631
6;8;84400;1;225;80,0;-245,667
6;8;84400;1;224;80,0;-246,298
6;9;97436;1;220;81,0;-219,485
6;9;97436;1;220;81,0;-220,374
6;9;97436;1;220;81,0;-220,374
6;9;97436;1;220;81,0;-221,485
6;9;97436;1;220;81,0;-221,485
6;9;97436;1;220;81,0;-221,485
6;9;97436;1;221;81,0;-221,522
6;9;97436;1;221;81,0;-221,522
6;9;97436;1;220;81,0;-221,596
7;1;14207;1;189;81,0;-215,392
7;2;22936;1;185;83,0;-192,105
7;2;22936;1;186;82,0;-196,038
7;3;32642;1;180;85,0;-151,873
7;3;32642;1;180;85,0;-152,651
7;3;32642;1;179;86,0;-154,825
7;4;43634;1;181;85,0;-161,809
7;4;43634;1;180;85,0;-162,540
7;4;43634;1;181;85,0;-162,920
7;4;43634;1;181;85,0;-162,920
7;5;54317;1;182;84,0;-166,078
7;5;54317;1;182;84,0;-169,745
7;5;54317;1;182;84,0;-170,967
7;5;54317;1;182;84,0;-172,189
7;5;54317;1;182;84,0;-172,301
7;6;64773;1;178;86,0;-144,666
7;6;64773;1;179;86,0;-144,714
7;6;64773;1;178;86,0;-147,443
7;6;64773;1;179;86,0;-147,603
7;6;64773;1;179;86,0;-147,603
7;6;64773;1;179;86,0;-150,492
7;7;76885;1;178;86,0;-137,666
7;7;76885;1;178;86,0;-141,888
7;7;76885;1;178;86,0;-141,888
7;7;76885;1;178;86,0;-143,888
7;7;76885;1;178;86,0;-143,999
7;7;76885;1;178;86,0;-144,666
7;7;76885;1;178;86,0;-144,666
7;8;86623;1;178;86,0;-142,443
7;8;86623;1;178;86,0;-143,332
7;8;86623;1;178;86,0;-143,777
7;8;86623;1;179;86,0;-143,825
7;8;86623;1;178;86,0;-143,888
7;8;86623;1;178;86,0;-143,888
7;8;86623;1;179;86,0;-143,936
7;8;86623;1;179;86,0;-143,936
7;9;103081;1;177;87,0;-133,728
7;9;103081;1;177;87,0;-134,617
7;9;103081;1;177;87,0;-134,617
7;9;103081;1;177;87,0;-135,506
7;9;103081;1;177;87,0;-136,728
7;9;103081;1;177;87,0;-137,839
7;9;103081;1;177;87,0;-137,839
7;9;103081;1;178;86,0;-137,888
7;9;103081;1;177;87,0;-137,950
8;1;13199;1;162;83,0;-186,222
8;2;21459;1;161;83,0;-183,726
8;2;21459;1;161;83,0;-183,948
8;3;30595;1;155;87,0;-138,624
8;3;30595;1;155;87,0;-138,624
8;3;30595;1;156;86,0;-138,902
8;4;40673;1;158;85,0;-162,789
8;4;40673;1;159;84,0;-163,176
8;4;40673;1;159;84,0;-163,287
8;4;40673;1;158;85,0;-163,789
8;5;51373;1;155;87,0;-132,513
8;5;51373;1;156;86,0;-134,902
8;5;51373;1;155;87,0;-134,957
8;5;51373;1;155;87,0;-134,957
8;5;51373;1;155;87,0;-135,735
8;6;61467;1;157;85,0;-156,401
8;6;61467;1;157;85,0;-156,512
8;6;61467;1;157;85,0;-156,735
8;6;61467;1;158;85,0;-156,900
8;6;61467;1;158;85,0;-157,011
8;6;61467;1;158;85,0;-157,122
8;7;73520;1;153;88,0;-120,510
8;7;73520;1;153;88,0;-123,732
8;7;73520;1;154;87,0;-123,789
8;7;73520;1;154;87,0;-124,012
8;7;73520;1;153;88,0;-124,288
8;7;73520;1;154;87,0;-124,900
8;7;73520;1;154;87,0;-125,789
8;8;82204;1;155;87,0;-134,624
8;8;82204;1;155;87,0;-134,624
8;8;82204;1;155;87,0;-135,846
8;8;82204;1;155;87,0;-137,846
8;8;82204;1;155;87,0;-137,846
8;8;82204;1;155;87,0;-138,624
8;8;82204;1;155;87,0;-138,624
8;8;82204;1;156;86,0;-138,791
8;9;98589;1;154;87,0;-129,567
8;9;98589;1;154;87,0;-129,567
8;9;98589;1;154;87,0;-129,567
8;9;98589;1;155;87,0;-129,624
8;9;98589;1;155;87,0;-129,846
8;9;98589;1;155;87,0;-129,846
8;9;98589;1;155;87,0;-129,846
8;9;98589;1;155;87,0;-129,846
8;9;98589;1;155;87,0;-129,846
9;1;13615;1;141;85,0;-157,823
9;2;22206;1;141;85,0;-159,712
9;2;22206;1;141;85,0;-160,267
9;3;30461;1;140;85,0;-148,762
9;3;30461;1;140;85,0;-149,651
9;3;30461;1;140;85,0;-152,762
9;4;39749;1;139;86,0;-143,700
9;4;39749;1;139;86,0;-145,589
9;4;39749;1;139;86,0;-146,589
9;4;39749;1;139;86,0;-146,811
9;5;48037;1;138;86,0;-138,527
9;5;48037;1;139;86,0;-138,589
9;5;48037;1;139;86,0;-138,811
9;5;48037;1;138;86,0;-138,860
9;5;48037;1;139;86,0;-139,589
9;6;62805;1;136;88,0;-120,399
9;6;62805;1;136;88,0;-120,510
9;6;62805;1;136;88,0;-121,176
9;6;62805;1;136;88,0;-121,288
9;6;62805;1;137;87,0;-121,463
9;6;62805;1;137;87,0;-121,574
9;7;71457;1;137;87,0;-119,574
9;7;71457;1;137;87,0;-119,574
9;7;71457;1;136;88,0;-120,399
9;7;71457;1;137;87,0;-120,574
9;7;71457;1;137;87,0;-121,796
9;7;71457;1;137;87,0;-122,685
9;7;71457;1;137;87,0;-124,796
9;8;84982;1;136;88,0;-119,732
9;8;84982;1;136;88,0;-119,732
9;8;84982;1;137;87,0;-122,685
9;8;84982;1;137;87,0;-122,685
9;8;84982;1;138;86,0;-124,638
9;8;84982;1;137;87,0;-124,796
9;8;84982;1;137;87,0;-125,574
9;8;84982;1;137;87,0;-125,574
9;9;92530;1;136;88,0;-119,510
9;9;92530;1;136;88,0;-120,510
9;9;92530;1;136;88,0;-120,621
9;9;92530;1;137;87,0;-120,685
9;9;92530;1;136;88,0;-121,510
9;9;92530;1;137;87,0;-121,685
9;9;92530;1;137;87,0;-121,685
9;9;92530;1;136;88,0;-121,732
9;9;92530;1;137;87,0;-121,796
10;1;14155;1;126;85,0;-154,984
10;2;22035;1;126;85,0;-144,762
10;2;22035;1;126;85,0;-145,873
10;3;30391;1;124;87,0;-120,735
10;3;30391;1;123;87,0;-122,442
10;3;30391;1;124;87,0;-122,846
10;4;40726;1;124;87,0;-123,513
10;4;40726;1;123;87,0;-125,553
10;4;40726;1;124;87,0;-125,624
10;4;40726;1;124;87,0;-125,624
10;5;49512;1;124;87,0;-125,401
10;5;49512;1;124;87,0;-126,401
10;5;49512;1;125;86,0;-130,582
10;5;49512;1;125;86,0;-130,582
10;5;49512;1;124;87,0;-130,624
10;6;60155;1;123;87,0;-118,220
10;6;60155;1;124;87,0;-121,513
10;6;60155;1;124;87,0;-121,735
10;6;60155;1;123;87,0;-123,331
10;6;60155;1;123;87,0;-123,553
10;6;60155;1;123;87,0;-123,553
10;7;74079;1;124;87,0;-124,957
10;7;74079;1;123;87,0;-127,775
10;7;74079;1;124;87,0;-127,846
10;7;74079;1;124;87,0;-127,957
10;7;74079;1;124;87,0;-128,068
10;7;74079;1;124;87,0;-129,957
10;7;74079;1;124;87,0;-129,957
10;8;84003;1;121;89,0;-100,852
10;8;84003;1;122;88,0;-104,481
10;8;84003;1;122;88,0;-104,592
10;8;84003;1;122;88,0;-105,592
10;8;84003;1;122;88,0;-105,592
10;8;84003;1;122;88,0;-106,814
10;8;84003;1;122;88,0;-107,370
10;8;84003;1;122;88,0;-109,148
10;9;95407;1;123;87,0;-113,553
10;9;95407;1;123;87,0;-113,553
10;9;95407;1;123;87,0;-113,664
10;9;95407;1;123;87,0;-113,886
10;9;95407;1;123;87,0;-113,886
10;9;95407;1;123;87,0;-113,997
10;9;95407;1;123;87,0;-114,886
10;9;95407;1;123;87,0;-114,886
10;9;95407;1;123;87,0;-114,886
11;1;13063;1;114;86,0;-143,499
11;2;23098;1;114;86,0;-143,832
11;2;23098;1;115;85,0;-143,907
11;3;30240;1;112;87,0;-113,678
11;3;30240;1;112;87,0;-113,678
11;3;30240;1;112;87,0;-114,567
11;4;37743;1;111;88,0;-104,377
11;4;37743;1;111;88,0;-105,377
11;4;37743;1;111;88,0;-108,488
11;4;37743;1;111;88,0;-108,710
11;5;52135;1;112;87,0;-123,567
11;5;52135;1;113;86,0;-123,756
11;5;52135;1;113;86,0;-123,867
11;5;52135;1;113;86,0;-124,089
11;5;52135;1;113;86,0;-124,978
11;6;62261;1;112;87,0;-110,678
11;6;62261;1;112;87,0;-110,678
11;6;62261;1;111;88,0;-111,377
11;6;62261;1;112;87,0;-111,456
11;6;62261;1;111;88,0;-111,488
11;6;62261;1;111;88,0;-111,488
11;7;73834;1;109;90,0;-94,215
11;7;73834;1;110;89,0;-94,297
11;7;73834;1;110;89,0;-95,408
11;7;73834;1;110;89,0;-95,630
11;7;73834;1;110;89,0;-95,630
11;7;73834;1;110;89,0;-96,297
11;7;73834;1;110;89,0;-96,630
11;8;79524;1;110;89,0;-94,741
11;8;79524;1;110;89,0;-94,741
11;8;79524;1;110;89,0;-95,741
11;8;79524;1;110;89,0;-97,408
11;8;79524;1;111;88,0;-97,488
11;8;79524;1;110;89,0;-97,519
11;8;79524;1;111;88,0;-97,599
11;8;79524;1;110;89,0;-97,630
11;9;95095;1;111;88,0;-101,488
11;9;95095;1;111;88,0;-101,710
11;9;95095;1;111;88,0;-101,710
11;9;95095;1;111;88,0;-101,821
11;9;95095;1;111;88,0;-103,377
11;9;95095;1;110;89,0;-103,408
11;9;95095;1;110;89,0;-103,408
11;9;95095;1;111;88,0;-103,488
11;9;95095;1;110;89,0;-103,519
12;1;12748;1;105;85,0;-149,651
12;2;21343;1;104;86,0;-124,013
12;2;21343;1;104;86,0;-124,013
12;3;29653;1;103;87,0;-114,929
12;3;29653;1;103;87,0;-114,929
12;3;29653;1;103;87,0;-116,818
12;4;40593;1;100;90,0;-86,444
12;4;40593;1;101;89,0;-90,311
12;4;40593;1;102;88,0;-96,510
12;4;40593;1;101;89,0;-96,534
12;5;49528;1;103;87,0;-119,484
12;5;49528;1;103;87,0;-120,262
12;5;49528;1;104;86,0;-120,679
12;5;49528;1;103;87,0;-120,818
12;5;49528;1;104;86,0;-121,679
12;6;60282;1;101;89,0;-92,534
12;6;60282;1;101;89,0;-92,534
12;6;60282;1;101;89,0;-97,645
12;6;60282;1;101;89,0;-98,645
12;6;60282;1;101;89,0;-98,756
12;6;60282;1;102;88,0;-99,399
12;7;67135;1;102;88,0;-102,621
12;7;67135;1;102;88,0;-103,621
12;7;67135;1;102;88,0;-103,621
12;7;67135;1;102;88,0;-103,732
12;7;67135;1;102;88,0;-104,843
12;7;67135;1;102;88,0;-105,732
12;7;67135;1;101;89,0;-106,311
12;8;81878;1;102;88,0;-104,954
12;8;81878;1;102;88,0;-105,288
12;8;81878;1;103;87,0;-110,484
12;8;81878;1;102;88,0;-110,510
12;8;81878;1;103;87,0;-110,595
12;8;81878;1;103;87,0;-110,818
12;8;81878;1;102;88,0;-110,843
12;8;81878;1;103;87,0;-110,929
12;9;94593;1;101;89,0;-88,645
12;9;94593;1;100;90,0;-89,111
12;9;94593;1;100;90,0;-89,333
12;9;94593;1;101;89,0;-89,422
12;9;94593;1;101;89,0;-89,645
12;9;94593;1;100;90,0;-90,222
12;9;94593;1;100;90,0;-90,333
12;9;94593;1;100;90,0;-90,333
12;9;94593;1;101;89,0;-90,422
13;1;13137;1;96;86,0;-133,902
13;2;21891;1;94;88,0;-107,718
13;2;21891;1;94;88,0;-107,829
13;3;30593;1;94;88,0;-110,273
13;3;30593;1;95;87,0;-110,588
13;3;30593;1;95;87,0;-111,588
13;4;38822;1;94;88,0;-111,273
13;4;38822;1;94;88,0;-111,384
13;4;38822;1;94;88,0;-111,384
13;4;38822;1;95;87,0;-111,700
13;5;46305;1;94;88,0;-100,495
13;5;46305;1;94;88,0;-101,384
13;5;46305;1;94;88,0;-101,718
13;5;46305;1;94;88,0;-102,606
13;5;46305;1;94;88,0;-104,495
13;6;57241;1;94;88,0;-107,273
13;6;57241;1;94;88,0;-107,384
13;6;57241;1;95;87,0;-109,700
13;6;57241;1;95;87,0;-109,811
13;6;57241;1;95;87,0;-109,811
13;6;57241;1;94;88,0;-110,606
13;7;68730;1;93;89,0;-97,178
13;7;68730;1;93;89,0;-97,511
13;7;68730;1;93;89,0;-97,623
13;7;68730;1;94;88,0;-97,718
13;7;68730;1;94;88,0;-98,495
13;7;68730;1;94;88,0;-102,495
13;7;68730;1;94;88,0;-102,495
13;8;80300;1;92;90,0;-77,192
13;8;80300;1;92;90,0;-78,414
13;8;80300;1;93;89,0;-82,511
13;8;80300;1;93;89,0;-83,289
13;8;80300;1;93;89,0;-83,511
13;8;80300;1;92;90,0;-84,081
13;8;80300;1;93;89,0;-84,400
13;8;80300;1;92;90,0;-84,525
13;9;92833;1;92;90,0;-89,303
13;9;92833;1;92;90,0;-89,414
13;9;92833;1;93;89,0;-89,734
13;9;92833;1;93;89,0;-89,734
13;9;92833;1;93;89,0;-89,845
13;9;92833;1;94;88,0;-92,495
13;9;92833;1;94;88,0;-94,718
13;9;92833;1;94;88,0;-94,718
13;9;92833;1;93;89,0;-96,734
14;1;13156;1;89;86,0;-125,777
14;2;20811;1;87;88,0;-106,244
14;2;20811;1;88;87,0;-106,678
14;3;28799;1;89;86,0;-126,554
14;3;28799;1;90;85,0;-126,873
14;3;28799;1;89;86,0;-126,999
14;4;37009;1;89;86,0;-124,777
14;4;37009;1;89;86,0;-125,332
14;4;37009;1;90;85,0;-126,873
14;4;37009;1;90;85,0;-126,873
14;5;46629;1;86;89,0;-82,252
14;5;46629;1;86;89,0;-82,363
14;5;46629;1;86;89,0;-82,474
14;5;46629;1;86;89,0;-82,697
14;5;46629;1;86;89,0;-86,585
14;6;58000;1;88;87,0;-103,567
14;6;58000;1;88;87,0;-104,567
14;6;58000;1;88;87,0;-104,678
14;6;58000;1;88;87,0;-104,678
14;6;58000;1;88;87,0;-105,012
14;6;58000;1;88;87,0;-105,012
14;7;69930;1;86;89,0;-86,585
14;7;69930;1;86;89,0;-87,252
14;7;69930;1;86;89,0;-88,363
14;7;69930;1;87;88,0;-88,577
14;7;69930;1;87;88,0;-88,689
14;7;69930;1;87;88,0;-89,355
14;7;69930;1;87;88,0;-90,022
14;8;73944;1;86;89,0;-90,141
14;8;73944;1;87;88,0;-92,355
14;8;73944;1;87;88,0;-92,466
14;8;73944;1;87;88,0;-92,577
14;8;73944;1;87;88,0;-93,355
14;8;73944;1;87;88,0;-93,466
14;8;73944;1;87;88,0;-94,689
14;8;73944;1;87;88,0;-94,689
14;9;86128;1;86;89,0;-86,474
14;9;86128;1;86;89,0;-86,585
14;9;86128;1;87;88,0;-87,355
14;9;86128;1;86;89,0;-87,363
14;9;86128;1;87;88,0;-87,689
14;9;86128;1;86;89,0;-87,697
14;9;86128;1;86;89,0;-88,474
14;9;86128;1;87;88,0;-88,800
14;9;86128;1;86;89,0;-88,808
