width;k;time(ms);well number;well height;fill rate;rate
75;1;13393;1;19;78,0;-155,280
75;2;20504;1;20;74,0;-148,893
75;2;20504;1;20;74,0;-149,004
75;3;28626;1;21;70,0;-170,137
75;3;28626;1;20;74,0;-193,782
75;3;28626;1;20;74,0;-193,782
75;4;34242;1;20;74,0;-159,893
75;4;34242;1;20;74,0;-159,893
75;4;34242;1;20;74,0;-159,893
75;4;34242;1;20;74,0;-159,893
75;5;45821;1;19;78,0;-157,502
75;5;45821;1;19;78,0;-157,613
75;5;45821;1;19;78,0;-157,613
75;5;45821;1;19;78,0;-157,613
75;5;45821;1;19;78,0;-157,724
75;6;53179;1;19;78,0;-148,502
75;6;53179;1;19;78,0;-148,613
75;6;53179;1;20;74,0;-148,782
75;6;53179;1;19;78,0;-148,835
75;6;53179;1;19;78,0;-148,835
75;6;53179;1;19;78,0;-148,835
75;7;63336;1;19;78,0;-120,724
75;7;63336;1;19;78,0;-141,613
75;7;63336;1;19;78,0;-142,502
75;7;63336;1;19;78,0;-142,724
75;7;63336;1;20;74,0;-142,782
75;7;63336;1;19;78,0;-142,835
75;7;63336;1;20;74,0;-143,116
75;8;76081;1;20;74,0;-149,560
75;8;76081;1;20;74,0;-149,893
75;8;76081;1;21;70,0;-149,914
75;8;76081;1;21;70,0;-149,914
75;8;76081;1;21;70,0;-150,248
75;8;76081;1;21;70,0;-150,248
75;8;76081;1;21;70,0;-150,248
75;8;76081;1;19;78,0;-150,391
75;9;86817;1;19;78,0;-151,724
75;9;86817;1;19;78,0;-151,724
75;9;86817;1;20;74,0;-151,782
75;9;86817;1;20;74,0;-151,782
75;9;86817;1;20;74,0;-152,004
75;9;86817;1;20;74,0;-152,004
75;9;86817;1;20;74,0;-152,116
75;9;86817;1;20;74,0;-152,116
75;9;86817;1;20;74,0;-152,227
76;1;12143;1;19;77,0;-171,716
76;2;18318;1;20;73,0;-155,102
76;2;18318;1;20;73,0;-155,102
76;3;27980;1;19;77,0;-169,827
76;3;27980;1;19;77,0;-169,827
76;3;27980;1;20;73,0;-170,213
76;4;33653;1;19;77,0;-126,716
76;4;33653;1;19;77,0;-126,827
76;4;33653;1;19;77,0;-126,827
76;4;33653;1;19;77,0;-127,049
76;5;45354;1;19;77,0;-164,494
76;5;45354;1;19;77,0;-164,494
76;5;45354;1;20;73,0;-164,880
76;5;45354;1;20;73,0;-164,991
76;5;45354;1;20;73,0;-164,991
76;6;52437;1;19;77,0;-147,716
76;6;52437;1;20;73,0;-147,991
76;6;52437;1;20;73,0;-148,325
76;6;52437;1;19;77,0;-148,383
76;6;52437;1;19;77,0;-149,383
76;6;52437;1;19;77,0;-149,494
76;7;63452;1;19;77,0;-154,494
76;7;63452;1;19;77,0;-154,494
76;7;63452;1;19;77,0;-154,494
76;7;63452;1;19;77,0;-154,494
76;7;63452;1;21;69,0;-155,230
76;7;63452;1;21;69,0;-155,230
76;7;63452;1;21;69,0;-155,452
76;8;73809;1;19;77,0;-160,494
76;8;73809;1;19;77,0;-161,494
76;8;73809;1;19;77,0;-161,494
76;8;73809;1;19;77,0;-161,494
76;8;73809;1;19;77,0;-161,938
76;8;73809;1;20;73,0;-162,213
76;8;73809;1;20;73,0;-162,213
76;8;73809;1;19;77,0;-162,494
76;9;87675;1;18;81,0;-126,064
76;9;87675;1;19;77,0;-126,494
76;9;87675;1;19;77,0;-126,494
76;9;87675;1;19;77,0;-126,494
76;9;87675;1;19;77,0;-126,605
76;9;87675;1;19;77,0;-126,605
76;9;87675;1;19;77,0;-126,605
76;9;87675;1;19;77,0;-126,716
76;9;87675;1;19;77,0;-127,160
77;1;14063;1;19;76,0;-165,816
77;2;19735;1;20;72,0;-174,309
77;2;19735;1;20;72,0;-174,309
77;3;25840;1;19;76,0;-178,927
77;3;25840;1;19;76,0;-178,927
77;3;25840;1;19;76,0;-178,927
77;4;33168;1;18;80,0;-148,504
77;4;33168;1;18;80,0;-148,615
77;4;33168;1;19;76,0;-149,039
77;4;33168;1;20;72,0;-171,087
77;5;44505;1;19;76,0;-136,150
77;5;44505;1;19;76,0;-136,150
77;5;44505;1;19;76,0;-166,483
77;5;44505;1;19;76,0;-166,483
77;5;44505;1;19;76,0;-166,483
77;6;53217;1;19;76,0;-148,705
77;6;53217;1;19;76,0;-148,705
77;6;53217;1;19;76,0;-149,705
77;6;53217;1;19;76,0;-149,705
77;6;53217;1;19;76,0;-152,594
77;6;53217;1;19;76,0;-152,705
77;7;62435;1;20;72,0;-168,087
77;7;62435;1;20;72,0;-169,087
77;7;62435;1;19;76,0;-169,594
77;7;62435;1;19;76,0;-170,594
77;7;62435;1;19;76,0;-170,927
77;7;62435;1;20;72,0;-171,198
77;7;62435;1;20;72,0;-171,420
77;8;72725;1;20;72,0;-159,198
77;8;72725;1;20;72,0;-159,309
77;8;72725;1;20;72,0;-159,420
77;8;72725;1;20;72,0;-160,531
77;8;72725;1;20;72,0;-160,531
77;8;72725;1;20;72,0;-160,531
77;8;72725;1;20;72,0;-160,531
77;8;72725;1;20;72,0;-160,531
77;9;80304;1;20;72,0;-172,198
77;9;80304;1;20;72,0;-172,198
77;9;80304;1;20;72,0;-172,198
77;9;80304;1;20;72,0;-172,309
77;9;80304;1;20;72,0;-172,309
77;9;80304;1;20;72,0;-172,309
77;9;80304;1;20;72,0;-172,309
77;9;80304;1;20;72,0;-172,309
77;9;80304;1;20;72,0;-172,309
78;1;12859;1;19;75,0;-160,914
78;2;20509;1;19;75,0;-146,914
78;2;20509;1;19;75,0;-146,914
78;3;27194;1;19;75,0;-162,803
78;3;27194;1;19;75,0;-162,803
78;3;27194;1;19;75,0;-167,247
78;4;34917;1;19;75,0;-142,692
78;4;34917;1;19;75,0;-142,803
78;4;34917;1;20;71,0;-143,068
78;4;34917;1;20;71,0;-143,068
78;5;43816;1;18;79,0;-145,718
78;5;43816;1;18;79,0;-145,718
78;5;43816;1;19;75,0;-145,914
78;5;43816;1;19;75,0;-146,025
78;5;43816;1;19;75,0;-146,025
78;6;58477;1;18;79,0;-139,718
78;6;58477;1;18;79,0;-139,829
78;6;58477;1;18;79,0;-139,829
78;6;58477;1;19;75,0;-139,914
78;6;58477;1;19;75,0;-140,025
78;6;58477;1;19;75,0;-140,025
78;7;64731;1;19;75,0;-134,803
78;7;64731;1;19;75,0;-134,803
78;7;64731;1;19;75,0;-134,803
78;7;64731;1;19;75,0;-135,025
78;7;64731;1;19;75,0;-135,025
78;7;64731;1;19;75,0;-135,025
78;7;64731;1;19;75,0;-135,025
78;8;73462;1;18;79,0;-136,496
78;8;73462;1;18;79,0;-136,718
78;8;73462;1;18;79,0;-136,718
78;8;73462;1;19;75,0;-136,914
78;8;73462;1;19;75,0;-137,136
78;8;73462;1;19;75,0;-137,136
78;8;73462;1;19;75,0;-137,136
78;8;73462;1;19;75,0;-137,136
78;9;86151;1;18;79,0;-150,496
78;9;86151;1;19;75,0;-150,581
78;9;86151;1;19;75,0;-150,581
78;9;86151;1;19;75,0;-150,692
78;9;86151;1;18;79,0;-150,829
78;9;86151;1;18;79,0;-150,829
78;9;86151;1;18;79,0;-150,829
78;9;86151;1;19;75,0;-150,914
78;9;86151;1;19;75,0;-150,914
79;1;13155;1;19;74,0;-155,898
79;2;20248;1;18;78,0;-141,819
79;2;20248;1;19;74,0;-142,121
79;3;26058;1;19;74,0;-142,121
79;3;26058;1;19;74,0;-142,232
79;3;26058;1;19;74,0;-143,009
79;4;35866;1;19;74,0;-171,121
79;4;35866;1;19;74,0;-171,121
79;4;35866;1;19;74,0;-171,121
79;4;35866;1;19;74,0;-171,121
79;5;46233;1;18;78,0;-141,485
79;5;46233;1;18;78,0;-141,485
79;5;46233;1;18;78,0;-141,930
79;5;46233;1;18;78,0;-141,930
79;5;46233;1;19;74,0;-142,009
79;6;54761;1;19;74,0;-142,898
79;6;54761;1;19;74,0;-142,898
79;6;54761;1;19;74,0;-143,009
79;6;54761;1;19;74,0;-143,121
79;6;54761;1;19;74,0;-143,232
79;6;54761;1;19;74,0;-143,232
79;7;61756;1;18;78,0;-133,152
79;7;61756;1;18;78,0;-133,485
79;7;61756;1;18;78,0;-133,707
79;7;61756;1;20;70,0;-134,270
79;7;61756;1;20;70,0;-134,270
79;7;61756;1;20;70,0;-134,381
79;7;61756;1;20;70,0;-134,381
79;8;75233;1;18;78,0;-143,707
79;8;75233;1;18;78,0;-143,707
79;8;75233;1;18;78,0;-143,707
79;8;75233;1;18;78,0;-143,707
79;8;75233;1;18;78,0;-143,707
79;8;75233;1;19;74,0;-143,898
79;8;75233;1;19;74,0;-143,898
79;8;75233;1;19;74,0;-143,898
79;9;80371;1;18;78,0;-155,485
79;9;80371;1;18;78,0;-155,485
79;9;80371;1;18;78,0;-155,596
79;9;80371;1;18;78,0;-155,819
79;9;80371;1;19;74,0;-155,898
79;9;80371;1;19;74,0;-155,898
79;9;80371;1;19;74,0;-155,898
79;9;80371;1;19;74,0;-155,898
79;9;80371;1;19;74,0;-155,898
80;1;12394;1;18;77,0;-150,694
80;2;20238;1;18;77,0;-148,361
80;2;20238;1;18;77,0;-152,917
80;3;26483;1;19;73,0;-164,213
80;3;26483;1;19;73,0;-164,213
80;3;26483;1;20;69,0;-164,247
80;4;35839;1;18;77,0;-154,139
80;4;35839;1;18;77,0;-154,139
80;4;35839;1;18;77,0;-154,472
80;4;35839;1;18;77,0;-154,583
80;5;45654;1;18;77,0;-151,472
80;5;45654;1;18;77,0;-151,694
80;5;45654;1;18;77,0;-151,806
80;5;45654;1;18;77,0;-151,806
80;5;45654;1;19;73,0;-152,102
80;6;56210;1;18;77,0;-150,472
80;6;56210;1;18;77,0;-153,472
80;6;56210;1;18;77,0;-153,472
80;6;56210;1;18;77,0;-153,472
80;6;56210;1;18;77,0;-155,028
80;6;56210;1;19;73,0;-155,213
80;7;61010;1;18;77,0;-120,250
80;7;61010;1;18;77,0;-120,694
80;7;61010;1;18;77,0;-120,694
80;7;61010;1;18;77,0;-120,806
80;7;61010;1;18;77,0;-120,806
80;7;61010;1;18;77,0;-120,806
80;7;61010;1;19;73,0;-142,769
80;8;76414;1;18;77,0;-145,806
80;8;76414;1;18;77,0;-145,806
80;8;76414;1;18;77,0;-145,806
80;8;76414;1;19;73,0;-145,880
80;8;76414;1;19;73,0;-145,991
80;8;76414;1;19;73,0;-145,991
80;8;76414;1;19;73,0;-145,991
80;8;76414;1;19;73,0;-146,102
80;9;86369;1;18;77,0;-153,806
80;9;86369;1;19;73,0;-153,880
80;9;86369;1;19;73,0;-154,102
80;9;86369;1;19;73,0;-154,213
80;9;86369;1;19;73,0;-154,213
80;9;86369;1;19;73,0;-154,213
80;9;86369;1;19;73,0;-154,213
80;9;86369;1;19;73,0;-154,325
80;9;86369;1;19;73,0;-154,325
81;1;13661;1;18;76,0;-137,790
81;2;19077;1;18;76,0;-145,790
81;2;19077;1;19;72,0;-170,971
81;3;28168;1;19;72,0;-162,971
81;3;28168;1;18;76,0;-163,012
81;3;28168;1;18;76,0;-163,012
81;4;35889;1;18;76,0;-121,235
81;4;35889;1;18;76,0;-121,568
81;4;35889;1;18;76,0;-121,790
81;4;35889;1;18;76,0;-121,790
81;5;44517;1;17;81,0;-137,007
81;5;44517;1;17;81,0;-137,562
81;5;44517;1;18;76,0;-137,679
81;5;44517;1;18;76,0;-137,679
81;5;44517;1;18;76,0;-137,901
81;6;56330;1;18;76,0;-158,790
81;6;56330;1;18;76,0;-158,790
81;6;56330;1;19;72,0;-159,193
81;6;56330;1;19;72,0;-159,193
81;6;56330;1;19;72,0;-159,193
81;6;56330;1;19;72,0;-159,304
81;7;67298;1;18;76,0;-132,790
81;7;67298;1;18;76,0;-132,790
81;7;67298;1;18;76,0;-133,123
81;7;67298;1;18;76,0;-133,123
81;7;67298;1;18;76,0;-133,123
81;7;67298;1;18;76,0;-157,901
81;7;67298;1;18;76,0;-158,790
81;8;77502;1;18;76,0;-166,679
81;8;77502;1;18;76,0;-166,679
81;8;77502;1;18;76,0;-167,012
81;8;77502;1;19;72,0;-167,082
81;8;77502;1;19;72,0;-167,082
81;8;77502;1;19;72,0;-167,082
81;8;77502;1;19;72,0;-167,082
81;8;77502;1;19;72,0;-167,304
81;9;85594;1;18;76,0;-113,679
81;9;85594;1;18;76,0;-113,901
81;9;85594;1;18;76,0;-114,012
81;9;85594;1;18;76,0;-114,012
81;9;85594;1;18;76,0;-114,123
81;9;85594;1;18;76,0;-114,123
81;9;85594;1;18;76,0;-152,679
81;9;85594;1;18;76,0;-155,679
81;9;85594;1;18;76,0;-155,679
82;1;11876;1;18;75,0;-174,550
82;2;19684;1;19;71,0;-177,059
82;2;19684;1;19;71,0;-177,059
82;3;27009;1;18;75,0;-137,883
82;3;27009;1;18;75,0;-163,661
82;3;27009;1;18;75,0;-164,661
82;4;34569;1;18;75,0;-177,217
82;4;34569;1;18;75,0;-177,217
82;4;34569;1;19;71,0;-177,281
82;4;34569;1;19;71,0;-177,393
82;5;46851;1;18;75,0;-155,661
82;5;46851;1;18;75,0;-155,661
82;5;46851;1;20;68,0;-156,973
82;5;46851;1;20;68,0;-156,973
82;5;46851;1;18;75,0;-158,883
82;6;53859;1;18;75,0;-164,883
82;6;53859;1;18;75,0;-164,883
82;6;53859;1;19;71,0;-165,059
82;6;53859;1;19;71,0;-165,281
82;6;53859;1;19;71,0;-165,281
82;6;53859;1;19;71,0;-165,281
82;7;64373;1;18;75,0;-140,439
82;7;64373;1;18;75,0;-140,772
82;7;64373;1;18;75,0;-140,883
82;7;64373;1;18;75,0;-140,883
82;7;64373;1;18;75,0;-140,883
82;7;64373;1;18;75,0;-140,995
82;7;64373;1;18;75,0;-140,995
82;8;75610;1;18;75,0;-153,772
82;8;75610;1;18;75,0;-153,772
82;8;75610;1;18;75,0;-154,772
82;8;75610;1;18;75,0;-154,772
82;8;75610;1;18;75,0;-156,772
82;8;75610;1;18;75,0;-156,772
82;8;75610;1;18;75,0;-157,772
82;8;75610;1;18;75,0;-157,772
82;9;85392;1;18;75,0;-139,995
82;9;85392;1;18;75,0;-139,995
82;9;85392;1;18;75,0;-139,995
82;9;85392;1;18;75,0;-139,995
82;9;85392;1;18;75,0;-140,106
82;9;85392;1;18;75,0;-140,106
82;9;85392;1;18;75,0;-140,106
82;9;85392;1;18;75,0;-140,217
82;9;85392;1;18;75,0;-140,217
83;1;13455;1;18;74,0;-181,197
83;2;21010;1;17;79,0;-139,646
83;2;21010;1;18;74,0;-140,308
83;3;29760;1;18;74,0;-191,086
83;3;29760;1;18;74,0;-191,197
83;3;29760;1;19;70,0;-191,479
83;4;36721;1;18;74,0;-132,086
83;4;36721;1;18;74,0;-132,086
83;4;36721;1;18;74,0;-132,197
83;4;36721;1;18;74,0;-132,197
83;5;43933;1;17;79,0;-148,757
83;5;43933;1;18;74,0;-148,863
83;5;43933;1;18;74,0;-148,863
83;5;43933;1;18;74,0;-148,975
83;5;43933;1;18;74,0;-148,975
83;6;58478;1;17;79,0;-138,757
83;6;58478;1;17;79,0;-138,868
83;6;58478;1;18;74,0;-138,975
83;6;58478;1;18;74,0;-138,975
83;6;58478;1;18;74,0;-139,197
83;6;58478;1;18;74,0;-139,197
83;7;66203;1;18;74,0;-144,641
83;7;66203;1;18;74,0;-144,641
83;7;66203;1;18;74,0;-144,863
83;7;66203;1;18;74,0;-144,863
83;7;66203;1;18;74,0;-144,975
83;7;66203;1;18;74,0;-144,975
83;7;66203;1;18;74,0;-176,975
83;8;72978;1;18;74,0;-167,086
83;8;72978;1;18;74,0;-167,197
83;8;72978;1;19;70,0;-167,257
83;8;72978;1;19;70,0;-167,479
83;8;72978;1;19;70,0;-167,590
83;8;72978;1;19;70,0;-167,701
83;8;72978;1;18;74,0;-168,086
83;8;72978;1;18;74,0;-168,086
83;9;86130;1;18;74,0;-139,752
83;9;86130;1;18;74,0;-139,752
83;9;86130;1;18;74,0;-139,752
83;9;86130;1;18;74,0;-139,863
83;9;86130;1;18;74,0;-139,863
83;9;86130;1;18;74,0;-139,975
83;9;86130;1;18;74,0;-140,086
83;9;86130;1;18;74,0;-140,086
83;9;86130;1;18;74,0;-140,086
84;1;14202;1;18;73,0;-154,952
84;2;19790;1;18;73,0;-153,952
84;2;19790;1;18;73,0;-154,063
84;3;27942;1;17;78,0;-136,407
84;3;27942;1;17;78,0;-136,629
84;3;27942;1;17;78,0;-136,740
84;4;34125;1;18;73,0;-143,619
84;4;34125;1;18;73,0;-143,730
84;4;34125;1;18;73,0;-143,841
84;4;34125;1;18;73,0;-143,841
84;5;45799;1;18;73,0;-118,952
84;5;45799;1;18;73,0;-118,952
84;5;45799;1;17;78,0;-120,629
84;5;45799;1;17;78,0;-120,740
84;5;45799;1;17;78,0;-120,740
84;6;54407;1;17;78,0;-127,407
84;6;54407;1;18;73,0;-127,730
84;6;54407;1;17;78,0;-127,740
84;6;54407;1;18;73,0;-127,952
84;6;54407;1;18;73,0;-128,063
84;6;54407;1;18;73,0;-128,175
84;7;65946;1;17;78,0;-123,518
84;7;65946;1;18;73,0;-123,730
84;7;65946;1;17;78,0;-123,852
84;7;65946;1;17;78,0;-123,963
84;7;65946;1;17;78,0;-123,963
84;7;65946;1;18;73,0;-124,286
84;7;65946;1;18;73,0;-124,286
84;8;74260;1;17;78,0;-154,407
84;8;74260;1;17;78,0;-154,518
84;8;74260;1;17;78,0;-154,740
84;8;74260;1;17;78,0;-154,740
84;8;74260;1;18;73,0;-154,952
84;8;74260;1;18;73,0;-154,952
84;8;74260;1;18;73,0;-154,952
84;8;74260;1;18;73,0;-154,952
84;9;81270;1;17;78,0;-119,740
84;9;81270;1;17;78,0;-119,740
84;9;81270;1;17;78,0;-119,852
84;9;81270;1;17;78,0;-119,852
84;9;81270;1;17;78,0;-119,852
84;9;81270;1;17;78,0;-119,852
84;9;81270;1;17;78,0;-119,852
84;9;81270;1;18;73,0;-120,063
84;9;81270;1;18;73,0;-120,063
