10
4 3
1 1 1 1 
0 0 0 1 
0 1 1 1 
3 4
1 0 0 
1 1 0 
0 1 1 
1 1 1 
4 3
1 1 1 1 
0 1 1 1 
0 1 0 0 
3 6
1 0 0 
1 1 0 
0 1 0 
0 1 1 
0 0 1 
0 0 1 
5 4
1 0 0 0 0 
1 1 1 1 1 
0 0 0 0 1 
0 0 0 0 1 
4 3
1 1 0 0 
0 1 1 1 
0 1 1 1 
3 4
1 1 1 
1 1 1 
1 0 0 
1 0 0 
7 2
1 1 1 0 0 0 0 
0 0 1 1 1 1 1 
2 5
1 1 
1 1 
1 0 
1 1 
0 1 
6 3
1 1 0 0 0 0 
0 1 1 1 0 0 
0 0 0 1 1 1 
2 5
1 1 
0 1 
1 1 
1 0 
1 1 
2 7
1 0 
1 0 
1 0 
1 0 
1 0 
1 0 
1 1 
6 3
1 0 0 0 0 0 
1 1 0 0 0 0 
0 1 1 1 1 1 
4 3
1 1 1 0 
0 0 1 1 
0 1 1 1 
2 7
1 0 
1 0 
1 0 
1 0 
1 1 
0 1 
0 1 
3 4
1 1 1 
0 0 1 
0 0 1 
1 1 1 
4 4
1 0 0 0 
1 1 1 1 
0 0 1 1 
0 0 1 0 
3 3
1 1 1 
1 1 1 
1 1 0 
2 7
1 0 
1 0 
1 0 
1 0 
1 0 
1 1 
0 1 
3 4
1 0 0 
1 1 0 
1 1 0 
1 1 1 
5 4
1 0 0 0 0 
1 1 1 0 0 
0 0 1 1 1 
0 0 0 0 1 
4 5
1 0 0 0 
1 1 0 0 
0 1 1 1 
0 0 0 1 
0 0 0 1 
8 1
1 1 1 1 1 1 1 1 
3 6
1 0 0 
1 0 0 
1 0 0 
1 0 0 
1 0 0 
1 1 1 
3 5
1 0 0 
1 0 0 
1 1 1 
0 0 1 
0 1 1 
5 4
1 1 1 0 0 
0 0 1 0 0 
0 0 1 0 0 
0 0 1 1 1 
5 3
1 1 1 1 1 
0 0 0 1 1 
0 0 0 1 0 
3 4
1 1 0 
1 1 0 
1 1 0 
0 1 1 
2 5
1 1 
1 1 
1 0 
1 0 
1 1 
4 3
1 0 0 0 
1 1 1 1 
0 1 1 1 
4 4
1 1 1 0 
0 0 1 1 
0 0 1 1 
0 0 1 0 
5 4
1 0 0 0 0 
1 1 0 0 0 
0 1 1 1 0 
0 0 0 1 1 
5 4
1 0 0 0 0 
1 0 0 0 0 
1 1 0 0 0 
0 1 1 1 1 
5 3
1 0 0 0 0 
1 1 1 1 1 
0 0 0 1 1 
5 4
1 1 0 0 0 
0 1 1 1 0 
0 0 0 1 0 
0 0 0 1 1 
2 6
1 0 
1 0 
1 0 
1 1 
1 1 
1 0 
4 5
1 1 0 0 
0 1 0 0 
0 1 0 0 
0 1 1 1 
0 0 0 1 
4 4
1 0 0 0 
1 1 0 0 
0 1 1 1 
0 0 1 1 
7 2
1 1 1 1 1 1 1 
0 0 0 0 0 0 1 
2 6
1 0 
1 0 
1 0 
1 0 
1 1 
1 1 
2 5
1 0 
1 1 
1 1 
1 1 
0 1 
3 5
1 0 0 
1 0 0 
1 0 0 
1 1 1 
0 1 1 
4 5
1 0 0 0 
1 0 0 0 
1 0 0 0 
1 1 1 1 
0 0 0 1 
3 4
1 1 1 
0 1 1 
1 1 0 
1 0 0 
3 4
1 1 0 
0 1 1 
1 1 1 
1 0 0 
6 3
1 1 0 0 0 0 
0 1 1 1 1 1 
0 0 0 0 0 1 
5 4
1 0 0 0 0 
1 0 0 0 0 
1 1 1 0 0 
0 0 1 1 1 
3 4
1 1 0 
0 1 0 
0 1 1 
1 1 1 
2 6
1 0 
1 0 
1 1 
1 1 
1 0 
1 0 
6 3
1 1 1 1 1 1 
0 0 0 0 0 1 
0 0 0 0 0 1 
3 5
1 0 0 
1 1 0 
0 1 1 
0 1 1 
0 1 0 
4 5
1 0 0 0 
1 0 0 0 
1 0 0 0 
1 0 0 0 
1 1 1 1 
3 4
1 0 0 
1 1 1 
1 1 1 
1 0 0 
2 5
1 0 
1 1 
1 1 
1 0 
1 1 
4 5
1 0 0 0 
1 1 1 0 
0 0 1 1 
0 0 0 1 
0 0 0 1 
3 4
1 1 0 
1 1 0 
1 1 1 
0 0 1 
5 4
1 1 0 0 0 
0 1 0 0 0 
0 1 0 0 0 
0 1 1 1 1 
5 4
1 1 0 0 0 
0 1 1 0 0 
0 0 1 0 0 
0 0 1 1 1 
4 5
1 1 0 0 
0 1 1 1 
0 0 0 1 
0 0 0 1 
0 0 0 1 
3 6
1 0 0 
1 0 0 
1 0 0 
1 0 0 
1 1 1 
0 0 1 
